[
{"id":"01344a4b-7b59-4602-ba5c1663226546785","opdName":"KECAMATAN MANYAK PAYED","opdStatus":"1","createdAt":"2022-09-15 14:22:26","updatedAt":"2022-09-15 14:22:26"},
{"id":"015dc514-7106-4d22-8290-88624171e5a8","opdName":"UPTD PUSKESMAS BENDAHARA","opdStatus":"1","createdAt":"2023-05-23 15:05:22","updatedAt":"2023-05-23 15:05:22"},
{"id":"0ad2db63-2861-48c6-8b36-a18bb4f30fc2","opdName":"SATUAN POLISI PAMONG PRAJA DAN WILAYATUL HISBAH","opdStatus":"1","createdAt":"2022-07-29 14:31:46","updatedAt":"2022-09-06 09:01:11"},
{"id":"12ab4a40-297b-428e-9609-5ce044eb5243","opdName":"UPTD PUSKESMAS TAMIANG HULU","opdStatus":"1","createdAt":"2023-05-23 15:04:57","updatedAt":"2023-05-23 15:04:57"},
{"id":"1569ecbb-75eb-4bb5-b5781662623527647","opdName":"KECAMATAN BANDA MULIA","opdStatus":"1","createdAt":"2022-09-08 14:52:07","updatedAt":"2022-09-08 14:52:07"},
{"id":"1edbbbec-8b73-46cc-82a6-0821fced6b72","opdName":"SEKRETARIAT MAJELIS PERMUSYAWARATAN ULAMA","opdStatus":"1","createdAt":"2022-07-29 14:35:50","updatedAt":"2022-09-06 09:01:11"},
{"id":"1ef53f43-8795-490c-98ef-26047bbfb06b","opdName":"BADAN KESATUAN BANGSA DAN POLITIK","opdStatus":"1","createdAt":"2022-07-29 14:36:34","updatedAt":"2022-09-06 09:01:11"},
{"id":"26bbec2b-1163-4561-a4611664267542067","opdName":"KECAMATAN BENDAHARA","opdStatus":"1","createdAt":"2022-09-27 15:32:22","updatedAt":"2022-09-27 15:32:22"},
{"id":"29fc9556-20d1-4d12-9738-ba67b88aa0ef","opdName":"DINAS LINGKUNGAN HIDUP","opdStatus":"1","createdAt":"2022-07-29 14:32:51","updatedAt":"2022-09-06 09:01:11"},
{"id":"2ed0723c-cf93-4ec5-bfd4-d9d105d63ed9","opdName":"BADAN PENANGGULANGAN BENCANA DAERAH","opdStatus":"1","createdAt":"2022-07-29 14:36:24","updatedAt":"2022-09-06 09:01:11"},
{"id":"335701c5-1db8-4300-a7171664248498105","opdName":"KECAMATAN TAMIANG HULU","opdStatus":"1","createdAt":"2022-09-27 10:14:58","updatedAt":"2022-09-27 10:14:58"},
{"id":"35edb5a6-e833-487e-8bb1-bd75431fdf24","opdName":"UJI COBA","opdStatus":"1","createdAt":"2022-11-15 22:21:59","updatedAt":"2022-11-15 22:21:59"},
{"id":"39006f70-e6b5-4fb7-ba86-aa71bfd2c394","opdName":"DINAS PENDIDIKAN DAN KEBUDAYAAN","opdStatus":"1","createdAt":"2022-07-29 14:31:03","updatedAt":"2022-09-06 09:01:11"},
{"id":"3c4f3a8d-6c50-4f61-945c-a3e61ac4f3d7","opdName":"DINAS PARIWISATA PEMUDA DAN OLAHRAGA","opdStatus":"1","createdAt":"2022-07-29 14:33:39","updatedAt":"2022-09-06 10:30:21"},
{"id":"3d4f86aa-7c0e-4051-ac97-0fc3efbb25fa","opdName":"DINAS KEPENDUDUKAN DAN PENCATATAN SIPIL","opdStatus":"1","createdAt":"2022-07-29 14:33:00","updatedAt":"2022-09-06 09:01:11"},
{"id":"3fedaac0-7bc9-4361-b6e5-bde7bedb0bfa","opdName":"BADAN PERENCANAAN PEMBANGUNAN DAERAH","opdStatus":"1","createdAt":"2022-07-29 14:34:35","updatedAt":"2022-09-06 09:01:11"},
{"id":"49cfee8a-72a5-45b8-ab9b-9579b7c8dfb1","opdName":"DINAS PANGAN KELAUTAN DAN PERIKANAN","opdStatus":"1","createdAt":"2022-07-29 14:32:38","updatedAt":"2022-09-06 09:01:11"},
{"id":"4d86b606-54f4-4106-a2ab-76d4d1b6c059","opdName":"UPTD PUSKESMAS SIMPANG KIRI","opdStatus":"1","createdAt":"2023-05-23 15:05:11","updatedAt":"2023-05-23 15:05:11"},
{"id":"4de4ad99-c5a0-4d05-b637-6d2d48e5e29d","opdName":"KECAMATAN KEJURUAN MUDA","opdStatus":"1","createdAt":"2022-08-15 16:59:02","updatedAt":"2022-08-15 16:59:02"},
{"id":"4eaaaa9d-b8f9-4ff1-8984-f9258516ec7d","opdName":"BADAN PENGELOLAAN KEUANGAN DAERAH","opdStatus":"1","createdAt":"2022-07-29 14:34:55","updatedAt":"2022-07-29 14:34:55"},
{"id":"51d797a2-efb5-4ab8-af10-6eee95508dcc","opdName":"PERUMDA AIR MINUM TIRTA TAMIANG","opdStatus":"1","createdAt":"2023-02-10 12:24:21","updatedAt":"2023-02-10 12:24:21"},
{"id":"5373176c-3910-4b65-97d4-6d6319b7d82d","opdName":"INSPEKTORAT KABUPATEN ACEH TAMIANG","opdStatus":"1","createdAt":"2022-07-29 14:30:52","updatedAt":"2022-07-29 14:30:52"},
{"id":"54bceb2f-1364-4b4e-aedb-c33c97ba3aea","opdName":"SEKRETARIAT BAITUL MAL","opdStatus":"1","createdAt":"2022-07-29 14:36:13","updatedAt":"2022-07-29 14:36:13"},
{"id":"589536a6-5615-4d53-920d-deb55e9f397a","opdName":"DINAS PEMBERDAYAAN MASYARAKAT DAN KAMPUNG PEMBERDAYAAN PEREMPUAN DAN KELUARGA BERENCANA","opdStatus":"1","createdAt":"2022-07-29 14:32:25","updatedAt":"2022-08-30 10:42:52"},
{"id":"5c8a9585-a8e7-4bc6-8113-f70f60fb37e6","opdName":"DINAS KOPERASI USAHA KECIL MENENGAH DAN PERINDUSTRIAN","opdStatus":"1","createdAt":"2022-07-29 14:33:22","updatedAt":"2023-03-20 16:48:40"},
{"id":"6092fabf-d9a2-49d4-b9b0-42598e582cd6","opdName":"DINAS KESEHATAN","opdStatus":"1","createdAt":"2022-07-29 14:31:15","updatedAt":"2022-07-29 14:31:15"},
{"id":"622c17f9-38f8-4c51-9c15-a947d464be0d","opdName":"SEKRETARIAT DAERAH KABUPATEN ACEH TAMIANG","opdStatus":"1","createdAt":"2022-07-29 14:30:31","updatedAt":"2022-07-29 14:30:31"},
{"id":"63d7c01d-c489-4a51-9fbf-48e6facb1ff0","opdName":"DEWAN KERAJINAN NASIONAL DAERAH","opdStatus":"1","createdAt":"2022-12-09 16:41:44","updatedAt":"2022-12-09 16:41:44"},
{"id":"6744258d-925e-4514-bd99-ce52d37019fd","opdName":"BAGIAN PEMBANGUNAN SETDAKAB","opdStatus":"1","createdAt":"2023-06-19 15:20:39","updatedAt":"2023-06-19 15:20:39"},
{"id":"693ff690-9a3d-49b2-9c82-e8cb15aab0ae","opdName":"SEKRETARIAT MAJELIS ADAT ACEH","opdStatus":"1","createdAt":"2022-07-29 14:36:06","updatedAt":"2022-07-29 14:36:06"},
{"id":"708ddd42-5246-4edd-99fc1662972293237","opdName":"SEKRETARIAT DPRK","opdStatus":"1","createdAt":"2022-09-12 15:44:53","updatedAt":"2022-09-12 15:44:53"},
{"id":"75206fb1-8521-4178-b2fb-8108e32771cf","opdName":"DINAS PERPUSTAKAAN DAN KEARSIPAN","opdStatus":"1","createdAt":"2023-02-22 09:49:14","updatedAt":"2023-02-22 09:49:14"},
{"id":"76809499-d039-4127-ac71-a0a756d84a27","opdName":"DINAS PENDIDIKAN DAYAH","opdStatus":"1","createdAt":"2022-07-29 14:35:41","updatedAt":"2022-07-29 14:35:41"},
{"id":"7c52a2ef-90b2-4940-a0b0-a24981989ead","opdName":"DINAS KOMUNIKASI INFORMATIKA DAN PERSANDIAN","opdStatus":"1","createdAt":"2022-07-29 14:33:55","updatedAt":"2022-07-29 14:33:55"},
{"id":"8460dad3-ceb4-4b36-a11e-15e95a3406f9","opdName":"DINAS SYARIAT ISLAM","opdStatus":"1","createdAt":"2022-07-29 14:35:10","updatedAt":"2022-07-29 14:35:10"},
{"id":"898aec7b-b544-4009-ac4d1663905691489","opdName":"KECAMATAN SEKERAK","opdStatus":"1","createdAt":"2022-09-23 11:01:31","updatedAt":"2022-09-23 11:01:31"},
{"id":"8db1bd0d-444b-4d7f-a9fe1662450419123","opdName":"KECAMATAN RANTAU","opdStatus":"1","createdAt":"2022-09-06 14:46:59","updatedAt":"2022-09-06 14:46:59"},
{"id":"91234e42-d8fc-47ee-aa9a-e4e0071fc17c","opdName":"DINAS SOSIAL","opdStatus":"1","createdAt":"2022-07-29 14:31:56","updatedAt":"2022-07-29 14:31:56"},
{"id":"99e7660f-56f0-4945-87c8-6c3585bb2f94","opdName":"UPTD PUSKESMAS KEJURUAN MUDA","opdStatus":"1","createdAt":"2023-05-23 14:26:38","updatedAt":"2023-05-23 14:26:38"},
{"id":"9b86f051-9bdb-48c5-8e4a-416e9219626e","opdName":"UPTD PUSKESMAS BANDAR PUSAKA","opdStatus":"1","createdAt":"2023-05-23 14:28:50","updatedAt":"2023-05-23 14:28:50"},
{"id":"9bf8f441-d882-4a69-8ec8-508ec30be181","opdName":"PKK ACEH TAMIANG","opdStatus":"1","createdAt":"2022-10-17 16:35:52","updatedAt":"2022-10-17 16:35:52"},
{"id":"9c97ccab-be0f-4df0-818f-f7fb1afb7a6a","opdName":"UPTD PUSKESMAS MANYAK PAYED","opdStatus":"1","createdAt":"2023-05-23 15:05:37","updatedAt":"2023-05-23 15:05:37"},
{"id":"9cfd19db-4a35-4765-9a7b1664420076628","opdName":"KECAMATAN TENGGULUN","opdStatus":"1","createdAt":"2022-09-29 09:54:36","updatedAt":"2022-09-29 09:54:36"},
{"id":"a46a3245-3813-4a5a-9290-c7f2a3fa757c","opdName":"UPTD PUSKESMAS SUNGAI IYU","opdStatus":"1","createdAt":"2023-05-23 14:29:02","updatedAt":"2023-05-23 14:29:02"},
{"id":"a70c7f77-02c8-40e0-9bc9-12fdb37cac69","opdName":"UPTD PUSKESMAS SERUWAY","opdStatus":"1","createdAt":"2023-05-23 14:29:41","updatedAt":"2023-05-23 14:29:41"},
{"id":"a7992729-8aaf-4e9f-a5b1-b9ac9ac2a836","opdName":"DINAS TENAGA KERJA DAN TRANSMIGRASI","opdStatus":"1","createdAt":"2022-07-29 14:32:06","updatedAt":"2022-07-29 14:32:06"},
{"id":"a98452fb-a7fb-4041-9c66-14928e6b1874","opdName":"DINAS PERTANAHAN","opdStatus":"1","createdAt":"2022-07-29 14:35:19","updatedAt":"2022-07-29 14:35:19"},
{"id":"ae9bac4d-3011-4535-9e2a-31fe1b0c06d4","opdName":"UPTD PUSKESMAS RANTAU","opdStatus":"1","createdAt":"2023-05-23 14:27:24","updatedAt":"2023-05-23 14:27:24"},
{"id":"b5a29089-7f0f-49df-8bc8-db7da3a653a6","opdName":"BADAN KEPEGAWAIAN DAN PENGEMBANGAN SUMBER DAYA MANUSIA","opdStatus":"1","createdAt":"2022-07-29 14:34:05","updatedAt":"2022-07-29 14:34:05"},
{"id":"bd97366d-9850-4017-97ba-c0df23b32a8a","opdName":"DINAS PENANAMAN MODAL DAN PELAYANAN TERPADU SATU PINTU","opdStatus":"1","createdAt":"2022-07-29 14:33:31","updatedAt":"2022-07-29 14:33:31"},
{"id":"becfe15f-edc7-4947-a444-19e33c94ec7e","opdName":"RUMAH SAKIT UMUM DAERAH","opdStatus":"1","createdAt":"2022-07-29 14:36:45","updatedAt":"2022-07-29 14:36:45"},
{"id":"bf089c93-90cc-4b6e-b786-0fd4d3511d7e","opdName":"DINAS PERTANIAN PERKEBUNAN DAN PETERNAKAN","opdStatus":"1","createdAt":"2022-07-29 14:33:48","updatedAt":"2022-08-18 10:29:32"},
{"id":"bf76979d-1851-474c-bc681662695931513","opdName":"KECAMATAN KARANG BARU","opdStatus":"1","createdAt":"2022-09-09 10:58:51","updatedAt":"2022-09-09 10:58:51"},
{"id":"c7ed8422-db55-42ae-88e4-c110537d9783","opdName":"UPTD PUSKESMAS SAPTA JAYA","opdStatus":"1","createdAt":"2023-05-23 14:29:56","updatedAt":"2023-05-23 14:29:56"},
{"id":"cc753b0e-c13c-4208-847e-ee8154b6389e","opdName":"UPTD PUSKESMAS SEKERAK","opdStatus":"1","createdAt":"2023-05-23 14:29:26","updatedAt":"2023-05-23 14:29:26"},
{"id":"d8be5f38-b633-4c5a-a465-da8ea402d984","opdName":"UPTD PUSKESMAS KARANG BARU","opdStatus":"1","createdAt":"2023-04-13 10:20:59","updatedAt":"2023-04-13 10:20:59"},
{"id":"db97e683-bb42-4ce5-a2a2-39692d16c2d0","opdName":"UPTD PUSKESMAS SELELEH","opdStatus":"1","createdAt":"2023-05-23 14:26:16","updatedAt":"2023-05-23 14:26:16"},
{"id":"e06257e2-f1a0-48f5-b8ba-88cbd0342f94","opdName":"UPTD PUSKESMAS BANDA MULIA","opdStatus":"1","createdAt":"2023-05-23 14:26:04","updatedAt":"2023-05-23 14:26:04"},
{"id":"e38b4a42-4658-4377-aef61663042795873","opdName":"KECAMATAN KOTA KUALASIMPANG","opdStatus":"1","createdAt":"2022-09-13 11:19:55","updatedAt":"2022-09-13 11:19:55"},
{"id":"e9f1fba6-d3c7-490e-baa2-8bc10b2b2898","opdName":"UPTD PUSKESMAS KOTA KUALASIMPANG","opdStatus":"1","createdAt":"2023-05-23 14:28:37","updatedAt":"2023-05-23 14:28:37"},
{"id":"ea0edd10-8747-48fd-a171-0c73e2bfb8fa","opdName":"SEKRETARIAT DEWAN PERWAKILAN RAKYAT KABUPATEN ACEH TAMIANG","opdStatus":"1","createdAt":"2022-07-29 14:30:44","updatedAt":"2022-07-29 14:30:44"},
{"id":"edf427d0-488a-46f6-8448-567fed4e1e65","opdName":"SEKRETARIAT MAJELIS PENDIDIKAN DAERAH","opdStatus":"1","createdAt":"2022-07-29 14:35:58","updatedAt":"2022-07-29 14:35:58"},
{"id":"f0126f17-057e-4e48-bb2a1663831058125","opdName":"KECAMATAN SERUWAY","opdStatus":"1","createdAt":"2022-09-22 14:17:38","updatedAt":"2022-09-22 14:17:38"},
{"id":"f3855b07-09ad-414b-a5de-73ded47009ca","opdName":"DINAS PEKERJAAN UMUM DAN PERUMAHAN RAKYAT","opdStatus":"1","createdAt":"2022-07-29 14:31:31","updatedAt":"2022-07-29 14:31:31"},
{"id":"f5d4e757-3f79-4c44-8dda1663572640262","opdName":"KECAMATAN BANDAR PUSAKA","opdStatus":"1","createdAt":"2022-09-19 14:30:40","updatedAt":"2022-09-19 14:30:40"},
{"id":"fac376a9-c944-4a74-81b7-4cce006e727b","opdName":"DINAS PERHUBUNGAN","opdStatus":"1","createdAt":"2022-07-29 14:33:09","updatedAt":"2022-07-29 14:33:09"}
]